<?xml version="1.0" encoding="UTF-8"?>
<svg width="24px" height="24px" viewBox="0 0 24 24" version="1.1" xmlns="http://www.w3.org/2000/svg" xmlns:xlink="http://www.w3.org/1999/xlink">
    <!-- Generator: Sketch 64 (93537) - https://sketch.com -->
    <title>Manage my Account Copy</title>
    <desc>Created with Sketch.</desc>
    <defs>
        <circle id="path-1" cx="12" cy="12" r="12"></circle>
        <filter x="-22.9%" y="-22.9%" width="154.2%" height="154.2%" filterUnits="objectBoundingBox" id="filter-2">
            <feOffset dx="1" dy="1" in="SourceAlpha" result="shadowOffsetOuter1"></feOffset>
            <feGaussianBlur stdDeviation="2" in="shadowOffsetOuter1" result="shadowBlurOuter1"></feGaussianBlur>
            <feColorMatrix values="0 0 0 0 0.731006567   0 0 0 0 0.731006567   0 0 0 0 0.731006567  0 0 0 0.5 0" type="matrix" in="shadowBlurOuter1"></feColorMatrix>
        </filter>
    </defs>
    <g id="Manage-my-Account-Copy" stroke="none" stroke-width="1" fill="none" fill-rule="evenodd">
        <g id="Group-29">
            <g id="Oval">
                <use fill="black" fill-opacity="1" filter="url(#filter-2)" xlink:href="#path-1"></use>
                <use fill="#FFFFFF" fill-rule="evenodd" xlink:href="#path-1"></use>
            </g>
            <g id="Group-30" transform="translate(5.600000, 7.054545)" stroke="#757575">
                <path d="M1,1.53527542 L4.08378988,1.53527542 L4.08378988,1.53527542 L4.08378988,1 C4.08378988,0.44771525 4.53150513,-2.09451895e-15 5.08378988,-1.28964766e-15 L7.62133419,-1.28964766e-15 C8.17361894,2.16161296e-15 8.62133419,0.44771525 8.62133419,1 L8.62133419,1.53527542 L8.62133419,1.53527542 L11.7051241,1.53527542 C12.2574088,1.53527542 12.7051241,1.98299067 12.7051241,2.53527542 L12.7051241,8.70285518 C12.7051241,9.25513993 12.2574088,9.70285518 11.7051241,9.70285518 L1,9.70285518 C0.44771525,9.70285518 6.76353751e-17,9.25513993 0,8.70285518 L0,2.53527542 C1.77628323e-16,1.98299067 0.44771525,1.53527542 1,1.53527542 Z" id="Rectangle"></path>
                <circle id="Oval" cx="6.35256204" cy="5.63599197" r="2.69407781"></circle>
            </g>
        </g>
    </g>
</svg>