<?xml version="1.0" encoding="UTF-8"?>
<svg width="275px" height="70px" viewBox="0 0 275 70" version="1.1" xmlns="http://www.w3.org/2000/svg" xmlns:xlink="http://www.w3.org/1999/xlink">
    <title>color logo copy</title>
    <defs>
        <polygon id="path-1" points="0.0311115881 0.00106483669 15.2873181 0.00106483669 15.2873181 15.7292352 0.0311115881 15.7292352"></polygon>
        <polygon id="path-3" points="0.065231527 0.00106483669 15.3222251 0.00106483669 15.3222251 15.7292352 0.065231527 15.7292352"></polygon>
    </defs>
    <g id="color-logo-copy" stroke="none" stroke-width="1" fill="none" fill-rule="evenodd">
        <path d="M59.2548828,56.3394326 C61.0380859,56.3394326 62.1552734,55.4532021 62.1552734,54.0352333 C62.1552734,52.9234169 61.5053711,52.3057412 59.8994141,51.9029091 L59.0883789,51.6880654 C58.0356445,51.4141396 57.605957,51.0650185 57.605957,50.4795693 C57.605957,49.7222451 58.3041992,49.201249 59.3085938,49.201249 C60.3183594,49.201249 60.9897461,49.7115029 61.0756836,50.5440224 L62.0424805,50.5440224 C61.9995117,49.2442177 60.8823242,48.3311318 59.3408203,48.3311318 C57.7294922,48.3311318 56.6015625,49.2334755 56.6015625,50.522538 C56.6015625,51.5752724 57.2353516,52.2036904 58.6640625,52.5689248 L59.6577148,52.8267373 C60.699707,53.0952919 61.15625,53.498124 61.15625,54.1533974 C61.15625,54.9160927 60.3935547,55.4693154 59.3461914,55.4693154 C58.2397461,55.4693154 57.4448242,54.9160927 57.3535156,54.0782021 L56.3813477,54.0782021 C56.4726562,55.447831 57.6113281,56.3394326 59.2548828,56.3394326 Z M63.6860352,49.4859169 C64.0136719,49.4859169 64.2768555,49.2173623 64.2768555,48.8950966 C64.2768555,48.5674599 64.0136719,48.3042763 63.6860352,48.3042763 C63.3637695,48.3042763 63.0952148,48.5674599 63.0952148,48.8950966 C63.0952148,49.2173623 63.3637695,49.4859169 63.6860352,49.4859169 Z M64.1533203,56.2105263 L64.1533203,50.4204873 L63.21875,50.4204873 L63.21875,56.2105263 L64.1533203,56.2105263 Z M66.4091797,56.2105263 L66.4091797,52.6172646 C66.4091797,51.8062294 66.9785156,51.1992958 67.7519531,51.1992958 C68.4770508,51.1992958 68.9550781,51.6612099 68.9550781,52.3594521 L68.9550781,56.2105263 L69.8896484,56.2105263 L69.8896484,52.5689248 C69.8896484,51.7740029 70.4428711,51.1992958 71.2163086,51.1992958 C71.9897461,51.1992958 72.4355469,51.6719521 72.4355469,52.4722451 L72.4355469,56.2105263 L73.3701172,56.2105263 L73.3701172,52.2574013 C73.3701172,51.1079873 72.6289062,50.3667763 71.4848633,50.3667763 C70.6738281,50.3667763 69.9916992,50.7749794 69.6640625,51.4624794 L69.6425781,51.4624794 C69.3901367,50.7642373 68.8046875,50.3667763 68.0205078,50.3667763 C67.2685547,50.3667763 66.6508789,50.7427529 66.3769531,51.3604287 L66.3554688,51.3604287 L66.3554688,50.4204873 L65.4746094,50.4204873 L65.4746094,56.2105263 L66.4091797,56.2105263 Z M75.5454102,58.1441201 L75.5454102,55.2705849 L75.5668945,55.2705849 C75.9321289,55.904374 76.5927734,56.2642373 77.4145508,56.2642373 C78.8754883,56.2642373 79.8745117,55.0825966 79.8745117,53.3155068 C79.8745117,51.5484169 78.8701172,50.3667763 77.3930664,50.3667763 C76.5927734,50.3667763 75.8569336,50.7588662 75.5185547,51.3604287 L75.4970703,51.3604287 L75.4970703,50.4204873 L74.6108398,50.4204873 L74.6108398,58.1441201 L75.5454102,58.1441201 Z M77.2211914,55.4317177 C76.222168,55.4317177 75.5400391,54.5777138 75.5400391,53.3155068 C75.5400391,52.0586708 76.222168,51.1992958 77.2211914,51.1992958 C78.2416992,51.1992958 78.918457,52.0371865 78.918457,53.3155068 C78.918457,54.5991982 78.2416992,55.4317177 77.2211914,55.4317177 Z M81.8457031,56.2105263 L81.8457031,48.1216591 L80.9111328,48.1216591 L80.9111328,56.2105263 L81.8457031,56.2105263 Z M85.5356445,56.2642373 C86.7709961,56.2642373 87.7753906,55.5498818 87.9365234,54.5562294 L87.0126953,54.5562294 C86.8461914,55.0987099 86.2822266,55.4424599 85.5571289,55.4424599 C84.5258789,55.4424599 83.8491211,54.7281044 83.8491211,53.6270302 L83.8491211,53.5733193 L88.0063477,53.5733193 L88.0063477,53.2080849 C88.0063477,51.4571083 87.0395508,50.3667763 85.4926758,50.3667763 C83.9135742,50.3667763 82.8823242,51.5430458 82.8823242,53.3369912 C82.8823242,55.1309365 83.9082031,56.2642373 85.5356445,56.2642373 Z M87.0341797,52.8267373 L83.8491211,52.8267373 C83.9135742,51.8491982 84.5688477,51.1885537 85.4765625,51.1885537 C86.3896484,51.1885537 87.0126953,51.8438271 87.0341797,52.8267373 Z M89.5961914,57.5908974 L90.4018555,55.1255654 L89.4082031,55.1255654 L88.8710938,57.5908974 L89.5961914,57.5908974 Z M97.0351562,56.3394326 C98.8183594,56.3394326 99.9355469,55.4532021 99.9355469,54.0352333 C99.9355469,52.9234169 99.2856445,52.3057412 97.6796875,51.9029091 L96.8686523,51.6880654 C95.815918,51.4141396 95.3862305,51.0650185 95.3862305,50.4795693 C95.3862305,49.7222451 96.0844727,49.201249 97.0888672,49.201249 C98.0986328,49.201249 98.7700195,49.7115029 98.855957,50.5440224 L99.8227539,50.5440224 C99.7797852,49.2442177 98.6625977,48.3311318 97.1210938,48.3311318 C95.5097656,48.3311318 94.3818359,49.2334755 94.3818359,50.522538 C94.3818359,51.5752724 95.015625,52.2036904 96.4443359,52.5689248 L97.4379883,52.8267373 C98.4799805,53.0952919 98.9365234,53.498124 98.9365234,54.1533974 C98.9365234,54.9160927 98.1738281,55.4693154 97.1264648,55.4693154 C96.0200195,55.4693154 95.2250977,54.9160927 95.1337891,54.0782021 L94.1616211,54.0782021 C94.2529297,55.447831 95.3916016,56.3394326 97.0351562,56.3394326 Z M101.879883,56.2105263 L101.879883,52.6172646 C101.879883,51.8062294 102.449219,51.1992958 103.222656,51.1992958 C103.947754,51.1992958 104.425781,51.6612099 104.425781,52.3594521 L104.425781,56.2105263 L105.360352,56.2105263 L105.360352,52.5689248 C105.360352,51.7740029 105.913574,51.1992958 106.687012,51.1992958 C107.460449,51.1992958 107.90625,51.6719521 107.90625,52.4722451 L107.90625,56.2105263 L108.84082,56.2105263 L108.84082,52.2574013 C108.84082,51.1079873 108.099609,50.3667763 106.955566,50.3667763 C106.144531,50.3667763 105.462402,50.7749794 105.134766,51.4624794 L105.113281,51.4624794 C104.86084,50.7642373 104.275391,50.3667763 103.491211,50.3667763 C102.739258,50.3667763 102.121582,50.7427529 101.847656,51.3604287 L101.826172,51.3604287 L101.826172,50.4204873 L100.945312,50.4204873 L100.945312,56.2105263 L101.879883,56.2105263 Z M111.773438,56.2642373 C112.584473,56.2642373 113.30957,55.850663 113.637207,55.2061318 L113.658691,55.2061318 L113.658691,56.2105263 L114.544922,56.2105263 L114.544922,52.2359169 C114.544922,51.0972451 113.664062,50.3667763 112.294434,50.3667763 C111.080566,50.3667763 110.129883,51.1133583 110.103027,52.0908974 L111,52.0908974 C111.112793,51.5430458 111.612305,51.1992958 112.283691,51.1992958 C113.137695,51.1992958 113.610352,51.5967568 113.610352,52.3164833 L113.610352,52.7998818 L111.988281,52.8965615 C110.581055,52.982499 109.818359,53.5679482 109.818359,54.5616005 C109.818359,55.5874794 110.597168,56.2642373 111.773438,56.2642373 Z M111.972168,55.4532021 C111.241699,55.4532021 110.774414,55.104081 110.774414,54.5669716 C110.774414,54.0083779 111.225586,53.6914833 112.095703,53.6377724 L113.610352,53.5410927 L113.610352,54.0083779 C113.610352,54.8408974 112.91748,55.4532021 111.972168,55.4532021 Z M116.720215,56.2105263 L116.720215,52.6280068 C116.720215,51.8116005 117.214355,51.263749 117.966309,51.263749 C118.197266,51.263749 118.401367,51.2906044 118.476562,51.3174599 L118.476562,50.3990029 C118.395996,50.3828896 118.256348,50.3667763 118.089844,50.3667763 C117.413086,50.3667763 116.859863,50.7534951 116.687988,51.3604287 L116.666504,51.3604287 L116.666504,50.4204873 L115.785645,50.4204873 L115.785645,56.2105263 L116.720215,56.2105263 Z M121.033203,56.2534951 C121.253418,56.2534951 121.521973,56.2320107 121.634766,56.2051552 L121.634766,55.4156044 C121.570312,55.4263466 121.344727,55.4424599 121.231934,55.4424599 C120.737793,55.4424599 120.512207,55.2007607 120.512207,54.6690224 L120.512207,51.1939248 L121.640137,51.1939248 L121.640137,50.4204873 L120.512207,50.4204873 L120.512207,49.1153115 L119.577637,49.1153115 L119.577637,50.4204873 L118.771973,50.4204873 L118.771973,51.1939248 L119.577637,51.1939248 L119.577637,54.7066201 C119.577637,55.8184365 119.98584,56.2534951 121.033203,56.2534951 Z M127.290527,56.2642373 C128.62793,56.2642373 129.578613,55.5659951 129.578613,54.5777138 C129.578613,53.7344521 129.159668,53.326249 127.98877,53.0308388 L127.10791,52.810624 C126.441895,52.6441201 126.130371,52.3809365 126.130371,51.9888466 C126.130371,51.4839638 126.608398,51.1455849 127.322754,51.1455849 C128.031738,51.1455849 128.504395,51.4839638 128.563477,52.0264443 L129.460449,52.0264443 C129.422852,51.0757607 128.53125,50.3721474 127.35498,50.3721474 C126.098145,50.3721474 125.211914,51.0596474 125.211914,52.0371865 C125.211914,52.810624 125.706055,53.3208779 126.721191,53.5840615 L127.736328,53.8472451 C128.396973,54.0191201 128.638672,54.2339638 128.638672,54.6421669 C128.638672,55.163163 128.144531,55.4907998 127.35498,55.4907998 C126.56543,55.4907998 126.087402,55.1739052 125.990723,54.5830849 L125.050781,54.5830849 C125.14209,55.5874794 126.044434,56.2642373 127.290527,56.2642373 Z M132.978516,56.2642373 C134.605957,56.2642373 135.647949,55.1094521 135.647949,53.3155068 C135.647949,51.5161904 134.605957,50.3667763 132.978516,50.3667763 C131.351074,50.3667763 130.309082,51.5161904 130.309082,53.3155068 C130.309082,55.1094521 131.351074,56.2642373 132.978516,56.2642373 Z M132.978516,55.4317177 C131.904297,55.4317177 131.259766,54.6421669 131.259766,53.3155068 C131.259766,51.9888466 131.898926,51.1992958 132.978516,51.1992958 C134.058105,51.1992958 134.697266,51.9834755 134.697266,53.3155068 C134.697266,54.6421669 134.058105,55.4317177 132.978516,55.4317177 Z M137.619141,56.2105263 L137.619141,48.1216591 L136.68457,48.1216591 L136.68457,56.2105263 L137.619141,56.2105263 Z M140.916992,56.2642373 C141.803223,56.2642373 142.399414,55.9204873 142.759277,55.2544716 L142.780762,55.2544716 L142.780762,56.2105263 L143.661621,56.2105263 L143.661621,50.4204873 L142.727051,50.4204873 L142.727051,53.7827919 C142.727051,54.7764443 142.152344,55.4317177 141.20166,55.4317177 C140.293945,55.4317177 139.848145,54.9214638 139.848145,53.9707802 L139.848145,50.4204873 L138.913574,50.4204873 L138.913574,54.131913 C138.913574,55.447831 139.649414,56.2642373 140.916992,56.2642373 Z M146.690918,56.2534951 C146.911133,56.2534951 147.179688,56.2320107 147.29248,56.2051552 L147.29248,55.4156044 C147.228027,55.4263466 147.002441,55.4424599 146.889648,55.4424599 C146.395508,55.4424599 146.169922,55.2007607 146.169922,54.6690224 L146.169922,51.1939248 L147.297852,51.1939248 L147.297852,50.4204873 L146.169922,50.4204873 L146.169922,49.1153115 L145.235352,49.1153115 L145.235352,50.4204873 L144.429688,50.4204873 L144.429688,51.1939248 L145.235352,51.1939248 L145.235352,54.7066201 C145.235352,55.8184365 145.643555,56.2534951 146.690918,56.2534951 Z M148.855469,49.4859169 C149.183105,49.4859169 149.446289,49.2173623 149.446289,48.8950966 C149.446289,48.5674599 149.183105,48.3042763 148.855469,48.3042763 C148.533203,48.3042763 148.264648,48.5674599 148.264648,48.8950966 C148.264648,49.2173623 148.533203,49.4859169 148.855469,49.4859169 Z M149.322754,56.2105263 L149.322754,50.4204873 L148.388184,50.4204873 L148.388184,56.2105263 L149.322754,56.2105263 Z M153.028809,56.2642373 C154.65625,56.2642373 155.698242,55.1094521 155.698242,53.3155068 C155.698242,51.5161904 154.65625,50.3667763 153.028809,50.3667763 C151.401367,50.3667763 150.359375,51.5161904 150.359375,53.3155068 C150.359375,55.1094521 151.401367,56.2642373 153.028809,56.2642373 Z M153.028809,55.4317177 C151.95459,55.4317177 151.310059,54.6421669 151.310059,53.3155068 C151.310059,51.9888466 151.949219,51.1992958 153.028809,51.1992958 C154.108398,51.1992958 154.747559,51.9834755 154.747559,53.3155068 C154.747559,54.6421669 154.108398,55.4317177 153.028809,55.4317177 Z M157.615723,56.2105263 L157.615723,52.8482216 C157.615723,51.8545693 158.19043,51.1992958 159.141113,51.1992958 C160.054199,51.1992958 160.494629,51.7149208 160.494629,52.6602333 L160.494629,56.2105263 L161.429199,56.2105263 L161.429199,52.4991005 C161.429199,51.1831826 160.693359,50.3667763 159.42041,50.3667763 C158.523438,50.3667763 157.94873,50.7051552 157.583496,51.3604287 L157.562012,51.3604287 L157.562012,50.4204873 L156.681152,50.4204873 L156.681152,56.2105263 L157.615723,56.2105263 Z M164.651855,56.2642373 C165.989258,56.2642373 166.939941,55.5659951 166.939941,54.5777138 C166.939941,53.7344521 166.520996,53.326249 165.350098,53.0308388 L164.469238,52.810624 C163.803223,52.6441201 163.491699,52.3809365 163.491699,51.9888466 C163.491699,51.4839638 163.969727,51.1455849 164.684082,51.1455849 C165.393066,51.1455849 165.865723,51.4839638 165.924805,52.0264443 L166.821777,52.0264443 C166.78418,51.0757607 165.892578,50.3721474 164.716309,50.3721474 C163.459473,50.3721474 162.573242,51.0596474 162.573242,52.0371865 C162.573242,52.810624 163.067383,53.3208779 164.08252,53.5840615 L165.097656,53.8472451 C165.758301,54.0191201 166,54.2339638 166,54.6421669 C166,55.163163 165.505859,55.4907998 164.716309,55.4907998 C163.926758,55.4907998 163.44873,55.1739052 163.352051,54.5830849 L162.412109,54.5830849 C162.503418,55.5874794 163.405762,56.2642373 164.651855,56.2642373 Z M171.827637,56.2105263 L171.827637,51.1939248 L172.955566,51.1939248 L172.955566,50.4204873 L171.827637,50.4204873 L171.827637,49.8833779 C171.833008,49.3408974 172.037109,49.1153115 172.520508,49.1153115 C172.665527,49.1153115 172.832031,49.1314248 172.955566,49.1582802 L172.955566,48.3848427 C172.77832,48.3526162 172.617188,48.3365029 172.43457,48.3365029 C171.360352,48.3365029 170.893066,48.8145302 170.893066,49.8833779 L170.893066,50.4204873 L170.087402,50.4204873 L170.087402,51.1939248 L170.893066,51.1939248 L170.893066,56.2105263 L171.827637,56.2105263 Z M176.350098,56.2642373 C177.977539,56.2642373 179.019531,55.1094521 179.019531,53.3155068 C179.019531,51.5161904 177.977539,50.3667763 176.350098,50.3667763 C174.722656,50.3667763 173.680664,51.5161904 173.680664,53.3155068 C173.680664,55.1094521 174.722656,56.2642373 176.350098,56.2642373 Z M176.350098,55.4317177 C175.275879,55.4317177 174.631348,54.6421669 174.631348,53.3155068 C174.631348,51.9888466 175.270508,51.1992958 176.350098,51.1992958 C177.429688,51.1992958 178.068848,51.9834755 178.068848,53.3155068 C178.068848,54.6421669 177.429688,55.4317177 176.350098,55.4317177 Z M180.937012,56.2105263 L180.937012,52.6280068 C180.937012,51.8116005 181.431152,51.263749 182.183105,51.263749 C182.414062,51.263749 182.618164,51.2906044 182.693359,51.3174599 L182.693359,50.3990029 C182.612793,50.3828896 182.473145,50.3667763 182.306641,50.3667763 C181.629883,50.3667763 181.07666,50.7534951 180.904785,51.3604287 L180.883301,51.3604287 L180.883301,50.4204873 L180.002441,50.4204873 L180.002441,56.2105263 L180.937012,56.2105263 Z M189.428711,56.3394326 C191.14209,56.3394326 192.291504,55.4854287 192.645996,53.9546669 L191.668457,53.9546669 C191.38916,54.8999794 190.572754,55.447831 189.434082,55.447831 C187.90332,55.447831 186.931152,54.2339638 186.931152,52.3325966 C186.931152,50.4473427 187.914062,49.2227333 189.428711,49.2227333 C190.535156,49.2227333 191.421387,49.888749 191.668457,50.9038857 L192.645996,50.9038857 C192.398926,49.3570107 191.115234,48.3311318 189.428711,48.3311318 C187.307129,48.3311318 185.9375,49.8994912 185.9375,52.3325966 C185.9375,54.7871865 187.291016,56.3394326 189.428711,56.3394326 Z M196.05127,56.2642373 C197.678711,56.2642373 198.720703,55.1094521 198.720703,53.3155068 C198.720703,51.5161904 197.678711,50.3667763 196.05127,50.3667763 C194.423828,50.3667763 193.381836,51.5161904 193.381836,53.3155068 C193.381836,55.1094521 194.423828,56.2642373 196.05127,56.2642373 Z M196.05127,55.4317177 C194.977051,55.4317177 194.33252,54.6421669 194.33252,53.3155068 C194.33252,51.9888466 194.97168,51.1992958 196.05127,51.1992958 C197.130859,51.1992958 197.77002,51.9834755 197.77002,53.3155068 C197.77002,54.6421669 197.130859,55.4317177 196.05127,55.4317177 Z M200.691895,56.2105263 L200.691895,48.1216591 L199.757324,48.1216591 L199.757324,56.2105263 L200.691895,56.2105263 Z M203.001465,56.2105263 L203.001465,48.1216591 L202.066895,48.1216591 L202.066895,56.2105263 L203.001465,56.2105263 Z M206.014648,56.2642373 C206.825684,56.2642373 207.550781,55.850663 207.878418,55.2061318 L207.899902,55.2061318 L207.899902,56.2105263 L208.786133,56.2105263 L208.786133,52.2359169 C208.786133,51.0972451 207.905273,50.3667763 206.535645,50.3667763 C205.321777,50.3667763 204.371094,51.1133583 204.344238,52.0908974 L205.241211,52.0908974 C205.354004,51.5430458 205.853516,51.1992958 206.524902,51.1992958 C207.378906,51.1992958 207.851562,51.5967568 207.851562,52.3164833 L207.851562,52.7998818 L206.229492,52.8965615 C204.822266,52.982499 204.05957,53.5679482 204.05957,54.5616005 C204.05957,55.5874794 204.838379,56.2642373 206.014648,56.2642373 Z M206.213379,55.4532021 C205.48291,55.4532021 205.015625,55.104081 205.015625,54.5669716 C205.015625,54.0083779 205.466797,53.6914833 206.336914,53.6377724 L207.851562,53.5410927 L207.851562,54.0083779 C207.851562,54.8408974 207.158691,55.4532021 206.213379,55.4532021 Z M212.873535,56.2642373 C214.350586,56.2642373 215.344238,55.0879677 215.344238,53.3155068 C215.344238,51.5484169 214.350586,50.3667763 212.89502,50.3667763 C212.073242,50.3667763 211.401855,50.7266396 211.036621,51.3604287 L211.015137,51.3604287 L211.015137,48.1216591 L210.080566,48.1216591 L210.080566,56.2105263 L210.966797,56.2105263 L210.966797,55.2329873 L210.988281,55.2329873 C211.364258,55.8990029 212.030273,56.2642373 212.873535,56.2642373 Z M212.707031,55.4317177 C211.697266,55.4317177 211.009766,54.5723427 211.009766,53.3155068 C211.009766,52.0640419 211.697266,51.1992958 212.707031,51.1992958 C213.722168,51.1992958 214.388184,52.0318154 214.388184,53.3155068 C214.388184,54.6045693 213.722168,55.4317177 212.707031,55.4317177 Z M218.711914,56.2642373 C220.339355,56.2642373 221.381348,55.1094521 221.381348,53.3155068 C221.381348,51.5161904 220.339355,50.3667763 218.711914,50.3667763 C217.084473,50.3667763 216.04248,51.5161904 216.04248,53.3155068 C216.04248,55.1094521 217.084473,56.2642373 218.711914,56.2642373 Z M218.711914,55.4317177 C217.637695,55.4317177 216.993164,54.6421669 216.993164,53.3155068 C216.993164,51.9888466 217.632324,51.1992958 218.711914,51.1992958 C219.791504,51.1992958 220.430664,51.9834755 220.430664,53.3155068 C220.430664,54.6421669 219.791504,55.4317177 218.711914,55.4317177 Z M223.298828,56.2105263 L223.298828,52.6280068 C223.298828,51.8116005 223.792969,51.263749 224.544922,51.263749 C224.775879,51.263749 224.97998,51.2906044 225.055176,51.3174599 L225.055176,50.3990029 C224.974609,50.3828896 224.834961,50.3667763 224.668457,50.3667763 C223.991699,50.3667763 223.438477,50.7534951 223.266602,51.3604287 L223.245117,51.3604287 L223.245117,50.4204873 L222.364258,50.4204873 L222.364258,56.2105263 L223.298828,56.2105263 Z M227.541992,56.2642373 C228.353027,56.2642373 229.078125,55.850663 229.405762,55.2061318 L229.427246,55.2061318 L229.427246,56.2105263 L230.313477,56.2105263 L230.313477,52.2359169 C230.313477,51.0972451 229.432617,50.3667763 228.062988,50.3667763 C226.849121,50.3667763 225.898438,51.1133583 225.871582,52.0908974 L226.768555,52.0908974 C226.881348,51.5430458 227.380859,51.1992958 228.052246,51.1992958 C228.90625,51.1992958 229.378906,51.5967568 229.378906,52.3164833 L229.378906,52.7998818 L227.756836,52.8965615 C226.349609,52.982499 225.586914,53.5679482 225.586914,54.5616005 C225.586914,55.5874794 226.365723,56.2642373 227.541992,56.2642373 Z M227.740723,55.4532021 C227.010254,55.4532021 226.542969,55.104081 226.542969,54.5669716 C226.542969,54.0083779 226.994141,53.6914833 227.864258,53.6377724 L229.378906,53.5410927 L229.378906,54.0083779 C229.378906,54.8408974 228.686035,55.4532021 227.740723,55.4532021 Z M233.315918,56.2534951 C233.536133,56.2534951 233.804688,56.2320107 233.91748,56.2051552 L233.91748,55.4156044 C233.853027,55.4263466 233.627441,55.4424599 233.514648,55.4424599 C233.020508,55.4424599 232.794922,55.2007607 232.794922,54.6690224 L232.794922,51.1939248 L233.922852,51.1939248 L233.922852,50.4204873 L232.794922,50.4204873 L232.794922,49.1153115 L231.860352,49.1153115 L231.860352,50.4204873 L231.054688,50.4204873 L231.054688,51.1939248 L231.860352,51.1939248 L231.860352,54.7066201 C231.860352,55.8184365 232.268555,56.2534951 233.315918,56.2534951 Z M235.480469,49.4859169 C235.808105,49.4859169 236.071289,49.2173623 236.071289,48.8950966 C236.071289,48.5674599 235.808105,48.3042763 235.480469,48.3042763 C235.158203,48.3042763 234.889648,48.5674599 234.889648,48.8950966 C234.889648,49.2173623 235.158203,49.4859169 235.480469,49.4859169 Z M235.947754,56.2105263 L235.947754,50.4204873 L235.013184,50.4204873 L235.013184,56.2105263 L235.947754,56.2105263 Z M239.852539,56.2105263 L241.990234,50.4204873 L241.018066,50.4204873 L239.390625,55.2007607 L239.369141,55.2007607 L237.74707,50.4204873 L236.769531,50.4204873 L238.907227,56.2105263 L239.852539,56.2105263 Z M245.126953,56.2642373 C246.362305,56.2642373 247.366699,55.5498818 247.527832,54.5562294 L246.604004,54.5562294 C246.4375,55.0987099 245.873535,55.4424599 245.148438,55.4424599 C244.117188,55.4424599 243.44043,54.7281044 243.44043,53.6270302 L243.44043,53.5733193 L247.597656,53.5733193 L247.597656,53.2080849 C247.597656,51.4571083 246.630859,50.3667763 245.083984,50.3667763 C243.504883,50.3667763 242.473633,51.5430458 242.473633,53.3369912 C242.473633,55.1309365 243.499512,56.2642373 245.126953,56.2642373 Z M246.625488,52.8267373 L243.44043,52.8267373 C243.504883,51.8491982 244.160156,51.1885537 245.067871,51.1885537 C245.980957,51.1885537 246.604004,51.8438271 246.625488,52.8267373 Z M254.520996,56.3394326 C256.234375,56.3394326 257.383789,55.4854287 257.738281,53.9546669 L256.760742,53.9546669 C256.481445,54.8999794 255.665039,55.447831 254.526367,55.447831 C252.995605,55.447831 252.023438,54.2339638 252.023438,52.3325966 C252.023438,50.4473427 253.006348,49.2227333 254.520996,49.2227333 C255.627441,49.2227333 256.513672,49.888749 256.760742,50.9038857 L257.738281,50.9038857 C257.491211,49.3570107 256.20752,48.3311318 254.520996,48.3311318 C252.399414,48.3311318 251.029785,49.8994912 251.029785,52.3325966 C251.029785,54.7871865 252.383301,56.3394326 254.520996,56.3394326 Z M260.450684,56.2642373 C261.261719,56.2642373 261.986816,55.850663 262.314453,55.2061318 L262.335938,55.2061318 L262.335938,56.2105263 L263.222168,56.2105263 L263.222168,52.2359169 C263.222168,51.0972451 262.341309,50.3667763 260.97168,50.3667763 C259.757812,50.3667763 258.807129,51.1133583 258.780273,52.0908974 L259.677246,52.0908974 C259.790039,51.5430458 260.289551,51.1992958 260.960938,51.1992958 C261.814941,51.1992958 262.287598,51.5967568 262.287598,52.3164833 L262.287598,52.7998818 L260.665527,52.8965615 C259.258301,52.982499 258.495605,53.5679482 258.495605,54.5616005 C258.495605,55.5874794 259.274414,56.2642373 260.450684,56.2642373 Z M260.649414,55.4532021 C259.918945,55.4532021 259.45166,55.104081 259.45166,54.5669716 C259.45166,54.0083779 259.902832,53.6914833 260.772949,53.6377724 L262.287598,53.5410927 L262.287598,54.0083779 C262.287598,54.8408974 261.594727,55.4532021 260.649414,55.4532021 Z M265.397461,56.2105263 L265.397461,52.6280068 C265.397461,51.8116005 265.891602,51.263749 266.643555,51.263749 C266.874512,51.263749 267.078613,51.2906044 267.153809,51.3174599 L267.153809,50.3990029 C267.073242,50.3828896 266.933594,50.3667763 266.76709,50.3667763 C266.090332,50.3667763 265.537109,50.7534951 265.365234,51.3604287 L265.34375,51.3604287 L265.34375,50.4204873 L264.462891,50.4204873 L264.462891,56.2105263 L265.397461,56.2105263 Z M270.317383,56.2642373 C271.552734,56.2642373 272.557129,55.5498818 272.718262,54.5562294 L271.794434,54.5562294 C271.62793,55.0987099 271.063965,55.4424599 270.338867,55.4424599 C269.307617,55.4424599 268.630859,54.7281044 268.630859,53.6270302 L268.630859,53.5733193 L272.788086,53.5733193 L272.788086,53.2080849 C272.788086,51.4571083 271.821289,50.3667763 270.274414,50.3667763 C268.695312,50.3667763 267.664062,51.5430458 267.664062,53.3369912 C267.664062,55.1309365 268.689941,56.2642373 270.317383,56.2642373 Z M271.815918,52.8267373 L268.630859,52.8267373 C268.695312,51.8491982 269.350586,51.1885537 270.258301,51.1885537 C271.171387,51.1885537 271.794434,51.8438271 271.815918,52.8267373 Z" id="Simple,SmartsolutionsforCollaborativeCare" fill="#FFFFFF" fill-rule="nonzero"></path>
        <path d="M67.5429688,39.7525185 C70.0917969,39.7525185 72.2133789,39.0371865 73.9077148,37.6065224 C75.6020508,36.1758583 76.5419922,34.3179482 76.7275391,32.0327919 L76.7275391,32.0327919 L72.4208984,32.0327919 C72.2060547,33.1949013 71.6591797,34.1226357 70.7802734,34.8159951 C69.9013672,35.5093544 68.8271484,35.8560341 67.5576172,35.8560341 C65.8876953,35.8560341 64.5693359,35.2090615 63.6025391,33.9151162 C62.6357422,32.6211708 62.1523438,30.8609169 62.1523438,28.6343544 C62.1523438,26.4077919 62.6357422,24.6499794 63.6025391,23.3609169 C64.5693359,22.0718544 65.8828125,21.4273232 67.5429688,21.4273232 C68.8027344,21.4273232 69.8745117,21.7935341 70.7583008,22.525956 C71.6420898,23.2583779 72.1914062,24.2349404 72.40625,25.4556435 L72.40625,25.4556435 L76.7128906,25.4556435 C76.546875,23.150956 75.6020508,21.2539833 73.878418,19.7647255 C72.1547852,18.2754677 70.0429688,17.5308388 67.5429688,17.5308388 C64.4765625,17.5308388 62.0571289,18.5220498 60.284668,20.5044716 C58.512207,22.4868935 57.6259766,25.1968544 57.6259766,28.6343544 C57.6259766,32.0718544 58.512207,34.7842568 60.284668,36.7715615 C62.0571289,38.7588662 64.4765625,39.7525185 67.5429688,39.7525185 Z M90.4429688,39.7525185 C93.5679688,39.7525185 96.0411133,38.7564248 97.8624023,36.7642373 C99.6836914,34.7720498 100.594336,32.0620888 100.594336,28.6343544 C100.594336,25.2163857 99.6836914,22.5113076 97.8624023,20.5191201 C96.0411133,18.5269326 93.5679688,17.5308388 90.4429688,17.5308388 C87.3277344,17.5308388 84.8521484,18.5269326 83.0162109,20.5191201 C81.1802734,22.5113076 80.2623047,25.2163857 80.2623047,28.6343544 C80.2623047,32.0620888 81.1753906,34.7720498 83.0015625,36.7642373 C84.8277344,38.7564248 87.3082031,39.7525185 90.4429688,39.7525185 Z M90.4429688,35.8706826 C88.7144531,35.8706826 87.3399414,35.2163857 86.3194336,33.9077919 C85.2989258,32.5991982 84.7886719,30.8413857 84.7886719,28.6343544 C84.7886719,26.4273232 85.3013672,24.6719521 86.3267578,23.3682412 C87.3521484,22.0645302 88.7242188,21.4126748 90.4429688,21.4126748 C92.1617188,21.4126748 93.5289063,22.0669716 94.5445313,23.3755654 C95.5699219,24.6743935 96.0826172,26.4273232 96.0826172,28.6343544 C96.0826172,30.8413857 95.5723633,32.5991982 94.5518555,33.9077919 C93.5313477,35.2163857 92.1617188,35.8706826 90.4429688,35.8706826 Z M119.011914,39.2105263 L119.011914,35.3579873 L109.607617,35.3579873 L109.607617,18.072831 L105.183789,18.072831 L105.183789,39.2105263 L119.011914,39.2105263 Z M137.253711,39.2105263 L137.253711,35.3579873 L127.849414,35.3579873 L127.849414,18.072831 L123.425586,18.072831 L123.425586,39.2105263 L137.253711,39.2105263 Z M144.59707,39.2105263 L146.223047,34.1714638 L153.649805,34.1714638 L155.246484,39.2105263 L160.036523,39.2105263 L152.697656,18.072831 L147.497461,18.072831 L140.158594,39.2105263 L144.59707,39.2105263 Z M152.712305,30.7583779 L147.175195,30.7583779 L149.826562,22.4673623 L150.090234,22.4673623 L152.712305,30.7583779 Z M173.532227,39.2105263 C175.788086,39.2105263 177.570312,38.6660927 178.878906,37.5772255 C180.1875,36.4883583 180.841797,35.0161904 180.841797,33.1607216 C180.841797,31.8032998 180.385254,30.650956 179.472168,29.7036904 C178.559082,28.7564248 177.404297,28.229081 176.007812,28.1216591 L176.007812,28.1216591 L176.007812,27.8579873 C177.091797,27.6919716 178,27.1792763 178.732422,26.3199013 C179.464844,25.4605263 179.831055,24.4693154 179.831055,23.3462685 C179.831055,21.7056435 179.25,20.416581 178.087891,19.479081 C176.925781,18.541581 175.324219,18.072831 173.283203,18.072831 L173.283203,18.072831 L164.040039,18.072831 L164.040039,39.2105263 L173.532227,39.2105263 Z M171.789062,26.8325966 L168.463867,26.8325966 L168.463867,21.4566201 L172.155273,21.4566201 C173.209961,21.4566201 174.027832,21.6934365 174.608887,22.1670693 C175.189941,22.6407021 175.480469,23.3023232 175.480469,24.1519326 C175.480469,25.0015419 175.163086,25.6607216 174.52832,26.1294716 C173.893555,26.5982216 172.980469,26.8325966 171.789062,26.8325966 L171.789062,26.8325966 Z M172.404297,35.8267373 L168.463867,35.8267373 L168.463867,29.8208779 L172.301758,29.8208779 C173.610352,29.8208779 174.608887,30.0723427 175.297363,30.5752724 C175.98584,31.0782021 176.330078,31.8130654 176.330078,32.7798623 C176.330078,33.7661904 175.993164,34.5205849 175.319336,35.0430458 C174.645508,35.5655068 173.673828,35.8267373 172.404297,35.8267373 L172.404297,35.8267373 Z M188.009375,39.2105263 L188.009375,31.8277138 L190.543555,29.0298623 L198.175391,39.2105263 L201.588477,39.2105263 L192.359961,27.1988076 L200.812109,18.072831 L197.501563,18.072831 L188.24375,28.3413857 L188.009375,28.3413857 L188.009375,18.072831 L185.372656,18.072831 L185.372656,39.2105263 L188.009375,39.2105263 Z M206.617383,39.2105263 L208.741406,33.1607216 L217.149609,33.1607216 L219.273633,39.2105263 L222.042188,39.2105263 L214.249219,18.072831 L211.641797,18.072831 L203.848828,39.2105263 L206.617383,39.2105263 Z M216.373242,30.9195107 L209.517773,30.9195107 L212.82832,21.4859169 L213.062695,21.4859169 L216.373242,30.9195107 Z M228.784961,39.2105263 L228.784961,30.8462685 L233.985156,30.8462685 L238.511523,39.2105263 L241.602344,39.2105263 L236.709766,30.4361123 C238.037891,30.0161904 239.07793,29.2691201 239.829883,28.1949013 C240.581836,27.1206826 240.957812,25.8462685 240.957812,24.3716591 C240.957812,22.4673623 240.34502,20.9414833 239.119434,19.7940224 C237.893848,18.6465615 236.260547,18.072831 234.219531,18.072831 L234.219531,18.072831 L226.148242,18.072831 L226.148242,39.2105263 L228.784961,39.2105263 Z M233.985156,28.5025185 L228.784961,28.5025185 L228.784961,20.416581 L233.867969,20.416581 C235.235156,20.416581 236.304492,20.7730263 237.075977,21.4859169 C237.847461,22.1988076 238.233203,23.1900185 238.233203,24.4595498 C238.233203,25.7583779 237.864551,26.756913 237.127246,27.4551552 C236.389941,28.1533974 235.342578,28.5025185 233.985156,28.5025185 L233.985156,28.5025185 Z M259.243555,39.2105263 L259.243555,36.8374794 L248.78457,36.8374794 L248.78457,29.5718544 L258.701563,29.5718544 L258.701563,27.2281044 L248.78457,27.2281044 L248.78457,20.4458779 L259.243555,20.4458779 L259.243555,18.072831 L246.147852,18.072831 L246.147852,39.2105263 L259.243555,39.2105263 Z" id="COLLABKARE" fill="#FFFFFF" fill-rule="nonzero"></path>
        <g id="Group-3" transform="translate(1.000000, 0.500000)">
            <path d="M14.3321694,18.1453496 L14.4791169,18.2326662 C18.514848,18.9950893 22.1278389,21.0821692 24.8399779,24.0136646 C25.1871147,21.5900963 27.1038207,4.34293645 10.7447346,6.790996 C10.7447346,6.790996 3.25467335,8.84080663 0.645823453,5.61435145 C0.600035476,5.57175799 0.555312335,5.52597001 0.509524357,5.48444138 C0.417948401,5.40031928 0.325307609,5.31513234 0.227342634,5.23526959 C0.232666817,6.24686445 0.685222411,14.6164808 14.3321694,18.1453496" id="Fill-1" fill="#36BFCB"></path>
            <path d="M35.2972066,18.1453496 L35.1491943,18.2326662 C31.1145281,18.9950893 27.5004724,21.0821692 24.7893982,24.0136646 C24.4422614,21.5900963 22.5255554,4.34293645 38.8846415,6.790996 C38.8846415,6.790996 46.3747027,8.84080663 48.9835526,5.61435145 C49.0293406,5.57175799 49.0740638,5.52597001 49.1187869,5.48444138 C49.2114277,5.40031928 49.3040685,5.31513234 49.4009686,5.23526959 C49.3967093,6.24686445 48.9430888,14.6164808 35.2972066,18.1453496" id="Fill-3" fill="#36BFCB"></path>
            <path d="M27.5756499,43.9661486 C28.6490052,44.3132854 29.876762,45.3184912 29.8160663,46.5611556 C29.7532409,47.8091443 28.526549,48.4182308 27.5532883,49.0060207 C28.5563645,49.4426037 29.36777,50.1006728 29.9960237,50.895041 C34.8910779,46.2938816 31.1034538,41.3530394 26.4437285,40.8759926 C22.7519396,40.4969107 18.3073113,40.7258506 18.0741121,37.9711181 C17.944202,36.4281697 19.2124225,35.7658413 20.2953614,35.0683732 L20.6723136,34.8735081 L20.6424982,34.8649894 C19.2305247,34.7329497 17.8739228,34.3794239 16.6131561,33.8352924 C16.4257449,33.7575593 15.8943914,34.4592867 15.8145286,34.5721593 C15.5493843,34.9416577 15.3449356,35.3580088 15.2075717,35.7924622 C14.9147416,36.7050272 14.8849262,37.6963902 15.0702078,38.6345113 C15.1692376,39.1381791 15.3481301,39.6386523 15.616469,40.077365 C16.6802408,41.8236972 18.7279218,42.7895041 20.6542114,43.2292816 C21.2451957,43.3655807 21.8532175,43.4603512 22.4569799,43.5253062 C24.1394219,43.7010043 25.9475146,43.4379896 27.5756499,43.9661486" id="Fill-5" fill="#F0698F"></path>
            <path d="M28.3383924,26.4872803 C28.738771,26.7002476 29.2051694,26.8482599 29.6630492,26.7726565 C29.9431013,26.7289982 30.3605173,26.4649187 30.5660307,26.2881558 C30.5564472,26.2817668 30.5468637,26.2764426 30.5372802,26.2700536 C30.2231533,26.2093579 29.9803706,26.0506972 29.8089319,25.8377299 C29.7727274,25.7983309 29.7397175,25.7514781 29.7109669,25.6982363 C29.6545305,25.6055955 29.6076777,25.5076305 29.5736029,25.4032765 C29.5491117,25.3329973 29.5331392,25.2595236 29.5171666,25.172207 C29.3755433,24.4044597 29.8004132,23.5142562 30.812008,23.5142562 C32.3570861,23.5142562 33.6508626,25.5331866 33.6625758,26.919604 C33.6732242,28.1239343 32.8224197,29.0407587 31.8257325,29.5997979 C30.9632148,30.0832338 30.1432906,30.3920364 29.1146583,30.7647293 C31.4711419,31.3354817 32.1047198,31.9222068 33.2792346,32.7474552 C34.0523061,32.4524954 34.333423,32.2001291 34.7998214,31.7784538 C35.2821924,31.3440004 35.6815062,30.8222304 36.0084111,30.2589318 C36.7442132,28.9896465 37.1009335,27.49994 36.934819,26.0304653 C36.8666694,25.4352216 36.7303703,24.8559505 36.563191,24.2820035 C36.2778148,23.3002241 35.9051219,22.3376117 35.6527556,21.3505081 C35.285387,19.9129785 35.0383448,18.3891972 35.2193671,16.9048149 C35.2747386,16.4575835 35.3716387,16.0156763 35.5079378,15.5844174 C35.5601148,15.4193677 35.8699823,14.3055485 36.0211891,14.2799924 C35.9785956,14.2863815 35.9349373,14.2917057 35.8902142,14.295965 C35.1001054,15.3373753 34.2237448,16.3244789 33.2515489,17.1997747 C31.4040572,18.8630496 28.8005315,19.5626473 27.3289272,21.6593107 C26.1533475,23.3374933 26.4323347,25.4746206 28.3383924,26.4872803" id="Fill-7" fill="#F0698F"></path>
            <path d="M30.0723725,17.8506028 C31.184062,18.012458 32.2158887,17.2436459 32.3788087,16.1319564 C32.5406639,15.0202669 31.770787,13.9884402 30.6601623,13.826585 C29.5484728,13.663665 28.516646,14.4335419 28.3547909,15.5441666 C28.190806,16.6558561 28.9617478,17.6876828 30.0723725,17.8506028" id="Fill-9" fill="#F0698F"></path>
            <g id="Group-13" transform="translate(9.359411, 0.000000)">
                <mask id="mask-2" fill="white">
                    <use xlink:href="#path-1"></use>
                </mask>
                <g id="Clip-12"></g>
                <path d="M0.503425818,4.45687397 C0.503425818,4.45687397 -0.5592812,2.23136529 0.503425818,0.000532418346 C0.508750002,0.458412196 1.11464208,1.12393513 1.24561699,1.29750351 C2.04424451,2.35808085 3.05583937,3.10027203 4.31873568,3.53579023 C6.41326946,4.25774951 8.70586285,4.21941539 10.7024316,5.26082567 C11.9504203,5.91144089 12.9790525,6.8985445 13.7031414,8.1028748 C14.6859857,9.73739912 15.2354414,11.5348435 15.2844239,13.4451605 C15.3046558,14.2107781 15.2130799,14.9657473 15.1875238,15.7292352 C15.1875238,15.7292352 15.3653515,10.4508397 10.7822944,7.42776834 C10.7822944,7.42776834 3.26454736,6.47793401 0.58648308,4.87961414 L0.503425818,4.45687397 Z" id="Fill-11" fill="#36BFCB" mask="url(#mask-2)"></path>
            </g>
            <g id="Group-16" transform="translate(24.878188, 0.000000)">
                <mask id="mask-4" fill="white">
                    <use xlink:href="#path-3"></use>
                </mask>
                <g id="Clip-15"></g>
                <path d="M14.8499109,4.45687397 C14.8499109,4.45687397 15.9126179,2.23136529 14.8499109,0.000532418346 C14.8445867,0.458412196 14.2386946,1.12393513 14.1077197,1.29750351 C13.3090922,2.35808085 12.2974973,3.10027203 11.034601,3.53579023 C8.93900242,4.25774951 6.64747386,4.21941539 4.65090506,5.26082567 C3.40291646,5.91144089 2.37428422,6.8985445 1.65019527,8.1028748 C0.667351001,9.73739912 0.116830432,11.5348435 0.0678479442,13.4451605 C0.0486808838,14.2107781 0.140256839,14.9657473 0.16581292,15.7292352 C0.16581292,15.7292352 -0.0120148076,10.4508397 4.57104231,7.42776834 C4.57104231,7.42776834 12.0887894,6.47793401 14.7657888,4.87961414 L14.8499109,4.45687397 Z" id="Fill-14" fill="#36BFCB" mask="url(#mask-4)"></path>
            </g>
            <path d="M7.26836229,7.14345694 C7.26836229,7.14345694 6.04380009,5.33323457 6.79450996,1.98751768 C6.78066708,2.06738044 7.00215311,2.32187641 7.04581142,2.38150726 C7.26090843,2.68498572 7.51433956,2.95971358 7.78906743,3.20782053 C9.12224297,4.40682665 10.9250115,4.95841205 12.6468524,5.30448398 C14.1876711,5.61328662 15.7508514,5.67930649 17.2991239,5.92208926 C19.1732365,6.21491935 20.9366061,7.16368884 22.1814001,8.60228321 C22.5296017,9.00585632 22.8639605,9.45095805 23.1333642,9.91203234 C23.5529098,10.6286674 23.8798147,11.3857663 24.1268568,12.1790697 C24.5070035,13.3993725 24.7157115,14.6292589 24.7742775,15.9059981 C24.7764072,15.9485915 24.7934446,16.4096658 24.7955742,16.4096658 L24.5708937,16.4096658 C24.5708937,16.4096658 24.771083,9.77466841 18.9560098,7.47142664 C18.9560098,7.47142664 14.8691666,6.20427098 12.5371742,6.78034763 C12.5371742,6.78034763 8.79214359,7.6588379 7.32692831,7.38517487 L7.26836229,7.14345694 Z" id="Fill-17" fill="#00A2AE"></path>
            <path d="M42.3226797,7.14345694 C42.3226797,7.14345694 43.5472419,5.33323457 42.796532,1.98751768 C42.8103749,2.06738044 42.5888889,2.32187641 42.5452306,2.38150726 C42.3301335,2.68498572 42.0767024,2.95971358 41.8009097,3.20782053 C40.468799,4.40682665 38.6660305,4.95841205 36.9441896,5.30448398 C35.4033709,5.61328662 33.8401906,5.67930649 32.2919181,5.92208926 C30.4178055,6.21491935 28.6544359,7.16368884 27.4096418,8.60228321 C27.0614402,9.00585632 26.7270815,9.45095805 26.4576778,9.91203234 C26.0381322,10.6286674 25.7112273,11.3857663 25.4641852,12.1790697 C25.0840385,13.3993725 24.8753305,14.6292589 24.8167645,15.9059981 C24.81357,15.9485915 24.7975974,16.4096658 24.7954677,16.4096658 L25.0201483,16.4096658 C25.0201483,16.4096658 24.819959,9.77466841 30.6339673,7.47142664 C30.6339673,7.47142664 34.7218754,6.20427098 37.0528029,6.78034763 C37.0528029,6.78034763 40.7988984,7.6588379 42.2641137,7.38517487 L42.3226797,7.14345694 Z" id="Fill-19" fill="#00A2AE"></path>
            <path d="M21.3419894,55.3777905 C21.259997,55.2393617 21.1875881,55.0913494 21.1279572,54.9369481 C20.913925,54.3789737 20.8628129,53.7432662 21.0086955,53.1618653 C21.0757802,52.890332 21.1971716,52.6337063 21.3611564,52.4068961 C21.4580566,52.2226794 21.5783831,52.0533703 21.7200064,51.9010987 C20.953324,51.7860963 20.2196515,51.56674 19.531767,51.2504835 C19.3933382,51.4080793 19.1281939,52.2067068 19.0973136,52.3153202 C18.9216156,52.9212122 18.8311045,53.5515956 18.9035134,54.1819789 C19.055785,55.5034412 19.80543,56.710966 20.8404513,57.5276958 C20.8787854,57.5575112 21.2578673,57.8684435 21.2919421,57.8663247 C21.813712,57.3786186 22.4185393,56.9803697 23.0819325,56.6960583 C22.4046964,56.4138766 21.7200064,56.0156277 21.3419894,55.3777905" id="Fill-21" fill="#F0698F"></path>
            <path d="M26.1993484,51.7235904 C26.4794005,51.7991938 26.7466745,51.9046126 26.997976,52.0473008 C27.8722069,52.5509685 28.6261113,53.6008975 28.4759693,54.6444375 C28.3354108,55.6219575 27.4185864,56.2225254 26.5954677,56.6676272 C27.2162675,56.9136044 27.7902145,57.2586115 28.294947,57.6866759 C28.3588372,57.7356584 28.4237923,57.7825112 28.4866176,57.8314937 C32.5798499,54.9958336 29.8762295,49.535351 25.5913267,49.0742767 C22.8216865,48.7739928 20.1776969,49.1275186 19.7826425,47.19484 C19.5153685,45.8893502 20.6227987,45.0151193 21.5151318,44.1770928 C20.4960831,43.9854222 19.1714263,43.6893976 18.2812228,43.2070266 C18.1587666,43.1410067 17.5379668,44.4656635 17.3899545,45.1375755 C17.2440719,45.8009687 17.1503662,46.4760752 17.2004136,47.1511817 C17.4208348,50.1444376 20.4492303,51.263581 23.0271999,51.4658999 C24.0260167,51.543633 25.1888184,51.4488625 26.1993484,51.7235904" id="Fill-23" fill="#F0698F"></path>
            <path d="M16.4026379,32.8342394 C16.4122214,32.8374339 16.4207401,32.8438229 16.4420369,32.8406284 C19.1680188,34.1375995 22.7479998,34.1045895 26.1033002,34.3846416 C28.0572755,34.5464968 30.1912082,34.9681721 30.7151079,36.0926397 C32.285742,39.4628478 28.0583403,40.6213901 28.0583403,40.6213901 C30.2636171,41.163392 31.3816956,42.5221236 31.392344,42.5285126 C34.4100912,41.3699703 35.3492772,36.7251526 33.4474788,34.2132029 C31.1825712,31.219947 26.7272945,31.3243009 23.3762534,31.0272115 C22.1357187,30.9154037 20.8312937,30.7652617 19.6290931,30.4266436 C18.0754964,29.9900606 16.0427231,28.9678174 15.9820274,27.1086125 C15.9351746,25.6476565 17.0415399,23.5147887 18.7229171,23.5147887 C19.7345119,23.5147887 20.1583169,24.4039273 20.0156288,25.1833877 C20.0007211,25.2589912 19.9858134,25.3324649 19.9613221,25.4027441 C19.9272474,25.5070981 19.8803945,25.6061279 19.8239582,25.6987687 C19.7952076,25.7509457 19.7621977,25.7977985 19.7259932,25.8382623 C19.5534897,26.0501648 19.3117718,26.2088255 18.9976449,26.2695212 C18.9880614,26.276975 18.977413,26.2812344 18.9678295,26.2886882 C19.1744078,26.4643863 19.5918238,26.7284658 19.8718758,26.7731889 C20.3297556,26.8487923 20.7950893,26.6997152 21.1954679,26.4878127 C23.1025904,25.4740882 23.3815776,23.3380258 22.204933,21.6598431 C20.7333287,19.5631797 18.1308679,18.8625172 16.2833762,17.2003071 C15.3111803,16.3239465 14.4348197,15.3368429 13.6447109,14.2954326 C13.5999877,14.2911732 13.5573943,14.2869139 13.513736,14.27946 C15.2813649,17.7880969 13.7895287,21.2988635 12.8737691,24.7883333 C12.2316726,27.2363929 12.7758041,29.9826067 14.6839915,31.7438466 C15.1589087,32.1814945 15.7605414,32.5637709 16.3579148,32.8118778 C16.3909247,32.8342394 16.4100918,32.8459526 16.4026379,32.8342394" id="Fill-25" fill="#F0698F"></path>
            <path d="M19.4619137,17.8506028 C20.5725384,17.6876828 21.3434802,16.6558561 21.1794953,15.5441666 C21.018705,14.4335419 19.9858134,13.663665 18.8751887,13.826585 C17.7634992,13.9884402 16.9936223,15.0202669 17.1565423,16.1319564 C17.3173326,17.2436459 18.3512891,18.012458 19.4619137,17.8506028" id="Fill-27" fill="#F0698F"></path>
            <path d="M23.8658653,52.0438933 C24.0106831,62.0054405 24.2822165,68.4146926 24.7858842,68.4146926 C25.3246916,68.4146926 25.6036788,62.0789143 25.7442372,52.1791275 C25.197976,52.0758384 24.598473,52.0630603 24.0149424,52.0492175 C23.96596,52.0470878 23.9159126,52.046023 23.8658653,52.0438933" id="Fill-29" fill="#044265"></path>
            <path d="M23.7286079,34.7621262 C23.7328672,36.5063287 23.7413859,38.2984489 23.7520343,40.1118657 C24.021438,40.1342273 24.2993603,40.1544592 24.5858014,40.1757559 C25.0032174,40.207701 25.4291521,40.2396461 25.8518922,40.2769154 C25.8604109,38.4592392 25.8667999,36.6586004 25.8699944,34.9122682 C25.2939178,34.867545 24.7039983,34.8270812 24.1289865,34.7887471 C23.9958819,34.7812933 23.8617124,34.7717097 23.7286079,34.7621262" id="Fill-31" fill="#044265"></path>
            <path d="M25.8759575,30.6712366 C25.879152,22.4656051 25.8408179,16.2544126 25.8408179,16.2544126 L23.7324413,16.2544126 C23.7324413,16.2544126 23.7047555,22.3825478 23.7175336,30.5093814 C24.0561516,30.5349375 24.4000939,30.5615584 24.7557493,30.5860497 C25.1188586,30.6116058 25.4958108,30.6392915 25.8759575,30.6712366" id="Fill-33" fill="#044265"></path>
            <path d="M23.7795071,44.1376938 C23.7912203,45.5667047 23.8050631,46.9914562 23.8199709,48.3949109 C23.851916,48.3970406 23.8827962,48.3991703 23.9147413,48.4023648 C24.4748454,48.433245 25.0551814,48.4673198 25.6504251,48.5322748 C25.6972779,48.537599 25.7430659,48.5461177 25.7888539,48.5525067 C25.8037616,47.1149772 25.8165396,45.6582806 25.827188,44.1973247 C25.3309741,44.1589906 24.8187877,44.1515367 24.2916935,44.1462125 C24.1223845,44.1451477 23.9520106,44.143018 23.7795071,44.1376938" id="Fill-35" fill="#044265"></path>
            <path d="M2.04448645,10.6234497 C2.04448645,10.6234497 2.16607633e-14,8.46396092 2.16607633e-14,4.87972062 C2.16607633e-14,4.97875043 0.327969701,5.20769032 0.391859902,5.26093216 C0.7400615,5.54843806 1.13085657,5.79015599 1.52910549,6.00099366 C3.23497387,6.90504001 5.18149534,7.18509206 7.0928772,7.13291506 C9.69533807,7.06263584 12.2498813,6.4258635 14.8587312,6.5014669 C15.6158301,6.52382847 16.3718641,6.60156155 17.1151201,6.74850901 C19.1212725,7.1456931 21.0677939,7.99223827 22.3775431,9.61611422 C23.9311398,11.541339 24.5487451,13.6720772 24.7457399,16.1094884 C24.7627773,16.3288447 24.7798146,16.5471362 24.7957872,16.7664926 L23.7320153,16.7664926 C23.7330802,16.2543062 23.7309505,16.215972 23.714978,15.9785135 C23.6798383,15.472716 23.7011351,14.9615944 23.629791,14.4600563 C23.4679358,13.3302646 23.1665871,12.2686224 22.6448171,11.2421199 C22.0186931,10.0132983 21.0156169,8.94100776 19.8059625,8.27654967 C17.9552763,7.25856579 15.7425456,7.0818029 13.6693086,7.20532396 C11.2585183,7.34801207 8.93610951,7.94857997 6.49869833,7.79737316 C5.80761931,7.75371485 5.11760514,7.66852792 4.43823933,7.53116398 C3.8366066,7.4097726 3.24349256,7.24685259 2.66954559,7.02856106 C1.9763369,6.76448157 1.25544246,6.47697566 0.655939402,6.03613327 C0.655939402,6.03613327 0.448296247,8.00714598 2.04448645,10.6234497" id="Fill-37" fill="#044265"></path>
            <path d="M47.5459166,10.6234497 C47.5459166,10.6234497 49.5914679,8.46396092 49.5914679,4.87972062 C49.5914679,4.97875043 49.2624334,5.20769032 49.1985432,5.26093216 C48.8503416,5.54843806 48.4595465,5.79015599 48.0612976,6.00099366 C46.3554292,6.90504001 44.4089077,7.18509206 42.4975259,7.13291506 C39.895065,7.06263584 37.3415866,6.4258635 34.7327367,6.5014669 C33.9756378,6.52382847 33.2185389,6.60156155 32.4752829,6.74850901 C30.4691306,7.1456931 28.5226091,7.99223827 27.21286,9.61611422 C25.6592633,11.541339 25.041658,13.6720772 24.845728,16.1094884 C24.8276258,16.3288447 24.8116533,16.5471362 24.7956807,16.7664926 L25.8594526,16.7664926 C25.8573229,16.2543062 25.8605174,16.215972 25.87649,15.9785135 C25.9105647,15.472716 25.889268,14.9615944 25.9606121,14.4600563 C26.1224672,13.3302646 26.423816,12.2686224 26.945586,11.2421199 C27.57171,10.0132983 28.5747861,8.94100776 29.7844406,8.27654967 C31.6361916,7.25856579 33.8489223,7.0818029 35.9200296,7.20532396 C38.3329496,7.34801207 40.6553584,7.94857997 43.0917047,7.79737316 C43.7838486,7.75371485 44.4727979,7.66852792 45.1521637,7.53116398 C45.7548613,7.4097726 46.3469105,7.24685259 46.9208575,7.02856106 C47.6140662,6.76448157 48.3349606,6.47697566 48.9344637,6.03613327 C48.9344637,6.03613327 49.1421068,8.00714598 47.5459166,10.6234497" id="Fill-39" fill="#044265"></path>
        </g>
    </g>
</svg>